{
  "situacion_iva": [
    {
      "code_situacion_iva": "E",
      "descripcion": "EXENTO"
    },
    {
      "code_situacion_iva": "I",
      "descripcion": "RESPONSABLE INSCRIPTO"
    },
    {
      "code_situacion_iva": "M",
      "descripcion": "MONOTRIBUTISTA"
    },
    {
      "code_situacion_iva": "N",
      "descripcion": "RESPONSABLE NO INSCRIPTO"
    },
    {
      "code_situacion_iva": "X",
      "descripcion": "NO RESPONSABLE"
    }
  ]
}
