{
  "tipo_domicilio": [
    {
      "code_tipo_domicilio": "1",
      "descripcion": "FISCAL"
    },
    {
      "code_tipo_domicilio": "2",
      "descripcion": "REAL"
    },
    {
      "code_tipo_domicilio": "8",
      "descripcion": "LEGAL"
    },
    {
      "code_tipo_domicilio": "9",
      "descripcion": "ACTIVIDAD PRINCIPAL"
    }
  ]
}
